<svg width="540" height="483" viewBox="0 0 540 483" fill="none" xmlns="http://www.w3.org/2000/svg">
<mask id="mask0_4_1315" style="mask-type:alpha" maskUnits="userSpaceOnUse" x="0" y="0" width="540" height="483">
<rect width="540" height="483" fill="white"/>
</mask>
<g mask="url(#mask0_4_1315)">
<rect opacity="0.02" x="10" width="530" height="483" fill="#3C64B1"/>
<g opacity="0.06">
<path d="M10 0L540 483" stroke="#3C64B1"/>
<path d="M30.7031 -18.8672L560.703 464.133" stroke="#3C64B1"/>
<path d="M51.4062 -37.7344L581.406 445.266" stroke="#3C64B1"/>
<path d="M72.1094 -56.6016L602.109 426.398" stroke="#3C64B1"/>
<path d="M92.8125 -75.4688L622.812 407.531" stroke="#3C64B1"/>
<path d="M113.516 -94.3359L643.516 388.664" stroke="#3C64B1"/>
<path d="M134.219 -113.203L664.219 369.797" stroke="#3C64B1"/>
<path d="M154.922 -132.07L684.922 350.93" stroke="#3C64B1"/>
<path d="M175.625 -150.938L705.625 332.062" stroke="#3C64B1"/>
<path d="M196.328 -169.805L726.328 313.195" stroke="#3C64B1"/>
<path d="M217.031 -188.672L747.031 294.328" stroke="#3C64B1"/>
<path d="M237.734 -207.539L767.734 275.461" stroke="#3C64B1"/>
<path d="M258.438 -226.406L788.438 256.594" stroke="#3C64B1"/>
<path d="M-10.7031 18.8672L519.297 501.867" stroke="#3C64B1"/>
<path d="M-31.4062 37.7344L498.594 520.734" stroke="#3C64B1"/>
<path d="M-52.1094 56.6016L477.891 539.602" stroke="#3C64B1"/>
<path d="M-72.8125 75.4688L457.188 558.469" stroke="#3C64B1"/>
<path d="M-93.5156 94.3359L436.484 577.336" stroke="#3C64B1"/>
<path d="M-114.219 113.203L415.781 596.203" stroke="#3C64B1"/>
<path d="M-134.922 132.07L395.078 615.07" stroke="#3C64B1"/>
<path d="M-155.625 150.938L374.375 633.938" stroke="#3C64B1"/>
<path d="M-176.328 169.805L353.672 652.805" stroke="#3C64B1"/>
<path d="M-197.031 188.672L332.969 671.672" stroke="#3C64B1"/>
<path d="M-217.734 207.539L312.266 690.539" stroke="#3C64B1"/>
<path d="M-238.438 226.406L291.562 709.406" stroke="#3C64B1"/>
<path d="M-259.141 245.273L270.859 728.273" stroke="#3C64B1"/>
</g>
<g opacity="0.06">
<path d="M20.3516 -9.43359L550.352 473.566" stroke="#3C64B1"/>
<path d="M41.0547 -28.3008L571.055 454.699" stroke="#3C64B1"/>
<path d="M61.7578 -47.168L591.758 435.832" stroke="#3C64B1"/>
<path d="M82.4609 -66.0352L612.461 416.965" stroke="#3C64B1"/>
<path d="M103.164 -84.9023L633.164 398.098" stroke="#3C64B1"/>
<path d="M123.867 -103.77L653.867 379.23" stroke="#3C64B1"/>
<path d="M144.57 -122.637L674.57 360.363" stroke="#3C64B1"/>
<path d="M165.273 -141.504L695.273 341.496" stroke="#3C64B1"/>
<path d="M185.977 -160.371L715.977 322.629" stroke="#3C64B1"/>
<path d="M206.68 -179.238L736.68 303.762" stroke="#3C64B1"/>
<path d="M227.383 -198.105L757.383 284.895" stroke="#3C64B1"/>
<path d="M248.086 -216.973L778.086 266.027" stroke="#3C64B1"/>
<path d="M268.789 -235.84L798.789 247.16" stroke="#3C64B1"/>
<path d="M-0.351562 9.43359L529.648 492.434" stroke="#3C64B1"/>
<path d="M-21.0547 28.3008L508.945 511.301" stroke="#3C64B1"/>
<path d="M-41.7578 47.168L488.242 530.168" stroke="#3C64B1"/>
<path d="M-62.4609 66.0352L467.539 549.035" stroke="#3C64B1"/>
<path d="M-83.1641 84.9023L446.836 567.902" stroke="#3C64B1"/>
<path d="M-103.867 103.77L426.133 586.77" stroke="#3C64B1"/>
<path d="M-124.57 122.637L405.43 605.637" stroke="#3C64B1"/>
<path d="M-145.273 141.504L384.727 624.504" stroke="#3C64B1"/>
<path d="M-165.977 160.371L364.023 643.371" stroke="#3C64B1"/>
<path d="M-186.68 179.238L343.32 662.238" stroke="#3C64B1"/>
<path d="M-207.383 198.105L322.617 681.105" stroke="#3C64B1"/>
<path d="M-228.086 216.973L301.914 699.973" stroke="#3C64B1"/>
<path d="M-248.789 235.84L281.211 718.84" stroke="#3C64B1"/>
</g>
</g>
<g opacity="0.5">
<path d="M286.667 227H263.333C261.492 227 260 228.492 260 230.333V253.667C260 255.508 261.492 257 263.333 257H286.667C288.508 257 290 255.508 290 253.667V230.333C290 228.492 288.508 227 286.667 227Z" stroke="#3C64B1" stroke-width="1.5" stroke-linecap="round" stroke-linejoin="round"/>
<path d="M269.167 238.667C270.547 238.667 271.667 237.547 271.667 236.167C271.667 234.786 270.547 233.667 269.167 233.667C267.786 233.667 266.667 234.786 266.667 236.167C266.667 237.547 267.786 238.667 269.167 238.667Z" stroke="#3C64B1" stroke-width="1.5" stroke-linecap="round" stroke-linejoin="round"/>
<path d="M290 247L281.667 238.667L263.333 257" stroke="#3C64B1" stroke-width="1.5" stroke-linecap="round" stroke-linejoin="round"/>
</g>
</svg>
